{
  "cod": "200",
  "calctime": 0.1913,
  "cnt": 15,
  "list": [
    {
      "id": 2217362,
      "name": "Gharyan",
      "coord": {
        "lon": 13.02028,
        "lat": 32.172218
      },
      "main": {
        "temp": 27.55,
        "temp_min": 27.552,
        "temp_max": 27.552,
        "pressure": 991.64,
        "sea_level": 1023.48,
        "grnd_level": 991.64,
        "humidity": 21
      },
      "dt": 1412443925,
      "wind": {
        "speed": 1.91,
        "deg": 252.5
      },
      "clouds": {"all": 80},
      "weather": [
        {
          "id": 803,
          "main": "Clouds",
          "description": "broken clouds",
          "icon": "04n"
        }
      ]
    },
    {
      "id": 2523650,
      "name": "Ragusa",
      "coord": {
        "lon": 14.71719,
        "lat": 36.928242
      },
      "main": {
        "temp": 32.97,
        "temp_min": 32.971,
        "temp_max": 32.971,
        "pressure": 1000.31,
        "sea_level": 1024.61,
        "grnd_level": 1000.31,
        "humidity": 44
      },
      "dt": 1404829800,
      "wind": {
        "speed": 1.26,
        "deg": 209.501
      },
      "clouds": {"all": 0},
      "weather": [
        {
          "id": 800,
          "main": "Clear",
          "description": "Sky is Clear",
          "icon": "01d"
        }
      ]
    },
    {
      "id": 2523581,
      "name": "Rosolini",
      "coord": {
        "lon": 14.94779,
        "lat": 36.824242
      },
      "main": {
        "temp": 25,
        "temp_min": 25,
        "temp_max": 25,
        "pressure": 1024.16,
        "sea_level": 1026.4,
        "grnd_level": 1024.16,
        "humidity": 98
      },
      "dt": 1412443837,
      "wind": {
        "speed": 2.2,
        "deg": 273.5
      },
      "clouds": {"all": 32},
      "weather": [
        {
          "id": 802,
          "main": "Clouds",
          "description": "scattered clouds",
          "icon": "03n"
        }
      ]
    },
    {
      "id": 2524119,
      "name": "Modica",
      "coord": {
        "lon": 14.77399,
        "lat": 36.84594
      },
      "main": {
        "temp": 23.05,
        "temp_min": 23.052,
        "temp_max": 23.052,
        "pressure": 1025.12,
        "sea_level": 1027.33,
        "grnd_level": 1025.12,
        "humidity": 100
      },
      "dt": 1412445213,
      "wind": {
        "speed": 4.46,
        "deg": 107.5
      },
      "clouds": {"all": 76},
      "weather": [
        {
          "id": 803,
          "main": "Clouds",
          "description": "broken clouds",
          "icon": "04n"
        }
      ]
    },
    {
      "id": 2523693,
      "name": "Pozzallo",
      "coord": {
        "lon": 14.84989,
        "lat": 36.730541
      },
      "main": {
        "temp": 24.37,
        "temp_min": 24.371,
        "temp_max": 24.371,
        "pressure": 1022.2,
        "sea_level": 1025.58,
        "grnd_level": 1022.2,
        "humidity": 92
      },
      "dt": 1404829800,
      "wind": {
        "speed": 5.91,
        "deg": 252.001
      },
      "clouds": {"all": 0},
      "weather": [
        {
          "id": 800,
          "main": "Clear",
          "description": "Sky is Clear",
          "icon": "01d"
        }
      ]
    },
    {
      "id": 2563191,
      "name": "Birkirkara",
      "coord": {
        "lon": 14.46111,
        "lat": 35.897221
      },
      "main": {
        "temp": 23.16,
        "pressure": 1012,
        "humidity": 83,
        "temp_min": 23,
        "temp_max": 23.3
      },
      "dt": 1412444063,
      "wind": {
        "speed": 2.1,
        "deg": 110,
        "var_beg": 80,
        "var_end": 140
      },
      "clouds": {"all": 20},
      "weather": [
        {
          "id": 801,
          "main": "Clouds",
          "description": "few clouds",
          "icon": "02n"
        }
      ]
    },
    {
      "id": 2208485,
      "name": "Zlitan",
      "coord": {
        "lon": 14.56874,
        "lat": 32.467381
      },
      "main": {
        "temp": 27.6,
        "temp_min": 27.602,
        "temp_max": 27.602,
        "pressure": 1010.77,
        "sea_level": 1023.77,
        "grnd_level": 1010.77,
        "humidity": 45
      },
      "dt": 1412443910,
      "wind": {
        "speed": 3.71,
        "deg": 33.0002
      },
      "clouds": {"all": 48},
      "weather": [
        {
          "id": 802,
          "main": "Clouds",
          "description": "scattered clouds",
          "icon": "03n"
        }
      ]
    },
    {
      "id": 2219905,
      "name": "Al Khums",
      "coord": {
        "lon": 14.26191,
        "lat": 32.648609
      },
      "main": {
        "temp": 27.6,
        "temp_min": 27.602,
        "temp_max": 27.602,
        "pressure": 1009.6,
        "sea_level": 1022.89,
        "grnd_level": 1009.6,
        "humidity": 36
      },
      "dt": 1412443931,
      "wind": {
        "speed": 3.71,
        "deg": 33.0002
      },
      "clouds": {"all": 48},
      "weather": [
        {
          "id": 802,
          "main": "Clouds",
          "description": "scattered clouds",
          "icon": "03n"
        }
      ]
    },
    {
      "id": 2208791,
      "name": "Yafran",
      "coord": {
        "lon": 12.52859,
        "lat": 32.06329
      },
      "main": {
        "temp": 28.3,
        "temp_min": 28.302,
        "temp_max": 28.302,
        "pressure": 1003.15,
        "sea_level": 1022.96,
        "grnd_level": 1003.15,
        "humidity": 19
      },
      "dt": 1412443910,
      "wind": {
        "speed": 3.11,
        "deg": 241.5
      },
      "clouds": {"all": 80},
      "weather": [
        {
          "id": 803,
          "main": "Clouds",
          "description": "broken clouds",
          "icon": "04n"
        }
      ]
    },
    {
      "id": 2212771,
      "name": "Sabratah",
      "coord": {
        "lon": 12.48845,
        "lat": 32.79335
      },
      "main": {
        "temp": 28.3,
        "temp_min": 28.302,
        "temp_max": 28.302,
        "pressure": 1002.63,
        "sea_level": 1022.36,
        "grnd_level": 1002.63,
        "humidity": 24
      },
      "dt": 1412443911,
      "wind": {
        "speed": 3.11,
        "deg": 241.5
      },
      "clouds": {"all": 80},
      "weather": [
        {
          "id": 803,
          "main": "Clouds",
          "description": "broken clouds",
          "icon": "04n"
        }
      ]
    },
    {
      "id": 2208425,
      "name": "Zuwarah",
      "coord": {
        "lon": 12.08199,
        "lat": 32.931198
      },
      "main": {
        "temp": 30.75,
        "temp_min": 30.752,
        "temp_max": 30.752,
        "pressure": 1010.77,
        "sea_level": 1022.39,
        "grnd_level": 1010.77,
        "humidity": 16
      },
      "dt": 1412443910,
      "wind": {
        "speed": 3.51,
        "deg": 222
      },
      "clouds": {"all": 92},
      "weather": [
        {
          "id": 804,
          "main": "Clouds",
          "description": "overcast clouds",
          "icon": "04n"
        }
      ]
    },
    {
      "id": 2215163,
      "name": "Masallatah",
      "coord": {
        "lon": 14,
        "lat": 32.616669
      },
      "main": {
        "temp": 27.6,
        "temp_min": 27.602,
        "temp_max": 27.602,
        "pressure": 1009.6,
        "sea_level": 1022.89,
        "grnd_level": 1009.6,
        "humidity": 36
      },
      "dt": 1412443912,
      "wind": {
        "speed": 3.71,
        "deg": 33.0002
      },
      "clouds": {"all": 48},
      "weather": [
        {
          "id": 802,
          "main": "Clouds",
          "description": "scattered clouds",
          "icon": "03n"
        }
      ]
    },
    {
      "id": 2210221,
      "name": "Tarhuna",
      "coord": {
        "lon": 13.6332,
        "lat": 32.43502
      },
      "main": {
        "temp": 27.5,
        "temp_min": 27.502,
        "temp_max": 27.502,
        "pressure": 991.56,
        "sea_level": 1023.81,
        "grnd_level": 991.56,
        "humidity": 25
      },
      "dt": 1412443911,
      "wind": {
        "speed": 1.16,
        "deg": 9.50018
      },
      "clouds": {"all": 76},
      "weather": [
        {
          "id": 803,
          "main": "Clouds",
          "description": "broken clouds",
          "icon": "04n"
        }
      ]
    },
    {
      "id": 2210247,
      "name": "Tripoli",
      "coord": {
        "lon": 13.18746,
        "lat": 32.875191
      },
      "main": {
        "temp": 35,
        "pressure": 1018,
        "humidity": 36,
        "temp_min": 35,
        "temp_max": 35
      },
      "dt": 1404829836,
      "wind": {
        "speed": 4.6,
        "deg": 350
      },
      "clouds": {"all": 0},
      "weather": [
        {
          "id": 800,
          "main": "Clear",
          "description": "Sky is Clear",
          "icon": "01d"
        }
      ]
    },
    {
      "id": 2216885,
      "name": "Zawiya",
      "coord": {
        "lon": 12.72778,
        "lat": 32.75222
      },
      "main": {
        "temp": 28.3,
        "temp_min": 28.302,
        "temp_max": 28.302,
        "pressure": 1002.63,
        "sea_level": 1022.36,
        "grnd_level": 1002.63,
        "humidity": 24
      },
      "dt": 1412443915,
      "wind": {
        "speed": 3.11,
        "deg": 241.5
      },
      "clouds": {"all": 80},
      "weather": [
        {
          "id": 803,
          "main": "Clouds",
          "description": "broken clouds",
          "icon": "04n"
        }
      ]
    }
  ]
}
